E:\Provas-Processo Seletivo\stoom\src\main\java\br\com\stoom\geo\google\GeocodeGeometry.java
E:\Provas-Processo Seletivo\stoom\src\main\java\br\com\stoom\controller\dto\TokenDto.java
E:\Provas-Processo Seletivo\stoom\src\main\java\br\com\stoom\repository\UsuarioRepository.java
E:\Provas-Processo Seletivo\stoom\src\main\java\br\com\stoom\controller\dto\GeoFilter.java
E:\Provas-Processo Seletivo\stoom\src\main\java\br\com\stoom\geo\google\GeocodeObject.java
E:\Provas-Processo Seletivo\stoom\src\main\java\br\com\stoom\geo\google\GeocodeResult.java
E:\Provas-Processo Seletivo\stoom\src\main\java\br\com\stoom\geo\google\GeocodeLocation.java
E:\Provas-Processo Seletivo\stoom\src\main\java\br\com\stoom\utils\RemoveAcentosUtil.java
E:\Provas-Processo Seletivo\stoom\src\main\java\br\com\stoom\repository\AdvancedGeoSearch.java
E:\Provas-Processo Seletivo\stoom\src\main\java\br\com\stoom\repository\GeoRepository.java
E:\Provas-Processo Seletivo\stoom\src\main\java\br\com\stoom\config\validacao\ErroDeFormularioDto.java
E:\Provas-Processo Seletivo\stoom\src\main\java\br\com\stoom\modelo\GeoDomain.java
E:\Provas-Processo Seletivo\stoom\src\main\java\br\com\stoom\service\GeoServiceImpl.java
E:\Provas-Processo Seletivo\stoom\src\main\java\br\com\stoom\GeoApplication.java
E:\Provas-Processo Seletivo\stoom\src\main\java\br\com\stoom\modelo\Usuario.java
E:\Provas-Processo Seletivo\stoom\src\main\java\br\com\stoom\config\security\SecurityConfigurations.java
E:\Provas-Processo Seletivo\stoom\src\main\java\br\com\stoom\service\GeoService.java
E:\Provas-Processo Seletivo\stoom\src\main\java\br\com\stoom\controller\AutenticacaoController.java
E:\Provas-Processo Seletivo\stoom\src\main\java\br\com\stoom\modelo\Perfil.java
E:\Provas-Processo Seletivo\stoom\src\main\java\br\com\stoom\config\property\GeoApiProperty.java
E:\Provas-Processo Seletivo\stoom\src\main\java\br\com\stoom\config\swagger\SwaggerConfigurations.java
E:\Provas-Processo Seletivo\stoom\src\main\java\br\com\stoom\config\validacao\ErroDeValidacaoHandler.java
E:\Provas-Processo Seletivo\stoom\src\main\java\br\com\stoom\config\security\AutenticacaoService.java
E:\Provas-Processo Seletivo\stoom\src\main\java\br\com\stoom\config\security\AutenticacaoViaTokenFilter.java
E:\Provas-Processo Seletivo\stoom\src\main\java\br\com\stoom\controller\GeoController.java
E:\Provas-Processo Seletivo\stoom\src\main\java\br\com\stoom\geo\google\AddressComponent.java
E:\Provas-Processo Seletivo\stoom\src\main\java\br\com\stoom\config\security\TokenService.java
E:\Provas-Processo Seletivo\stoom\src\main\java\br\com\stoom\controller\dto\GeoRequest.java
E:\Provas-Processo Seletivo\stoom\src\main\java\br\com\stoom\controller\dto\GeoResponse.java
E:\Provas-Processo Seletivo\stoom\src\main\java\br\com\stoom\controller\form\LoginForm.java
